ISSS608-VAA - Hands-on Ex06
…
3.1 Using lubridate package to change the time

GAStech_edges <- GAStech_edges %>%
  
  #dmy() transforms the SentDate to Date data type
  mutate(SendDate = dmy(SentDate)) %>%
  
  #wday() returns the day of the week as a decimal number or an ordered factor if label is TRUE. The argument abbr is FALSE keep the day spelled in full, i.e. Monday. the values in the Weekday field are in ordinal scale.
  mutate(Weekday = wday(SentDate,
                        label = TRUE,
                        abbr = FALSE))

GAStech_edges

# A tibble: 9,063 × 10
   source target SentDate SentTime Subject   MainSubject sourceLabel targetLabel
    <dbl>  <dbl> <chr>    <time>   <chr>     <chr>       <chr>       <chr>      
 1     43     41 6/1/2014 08:39    GT-Seism… Work relat… Sven.Flecha Isak.Baza  
 2     43     40 6/1/2014 08:39    GT-Seism… Work relat… Sven.Flecha Lucas.Alca…
 3     44     51 6/1/2014 08:58    Inspecti… Work relat… Kanon.Herr… Felix.Resu…
 4     44     52 6/1/2014 08:58    Inspecti… Work relat… Kanon.Herr… Hideki.Coc…
 5     44     53 6/1/2014 08:58    Inspecti… Work relat… Kanon.Herr… Inga.Ferro 
 6     44     45 6/1/2014 08:58    Inspecti… Work relat… Kanon.Herr… Varja.Lagos
 7     44     44 6/1/2014 08:58    Inspecti… Work relat… Kanon.Herr… Kanon.Herr…
 8     44     46 6/1/2014 08:58    Inspecti… Work relat… Kanon.Herr… Stenig.Fus…
 9     44     48 6/1/2014 08:58    Inspecti… Work relat… Kanon.Herr… Hennie.Osv…
10     44     49 6/1/2014 08:58    Inspecti… Work relat… Kanon.Herr… Isia.Vann  
# ℹ 9,053 more rows
# ℹ 2 more variables: SendDate <date>, Weekday <ord>
…
A close examination of GAStech_edges data.frame reveals that it consists of individual e-mail flow records. This is not very useful for visualisation.

In view of this, we will aggregate the individual by date, senders, receivers, main subject and day of the week.

GAStech_edges_aggregated <- GAStech_edges %>%
  filter(MainSubject == "Work related") %>%
  group_by(source, target, Weekday) %>%
    summarise(Weight = n()) %>%
  filter(source!=target) %>%
  filter(Weight > 1) %>%
  ungroup()

GAStech_edges_aggregated

# A tibble: 1,372 × 4
   source target Weekday   Weight
    <dbl>  <dbl> <ord>      <int>
 1      1      2 Sunday         5
 2      1      2 Monday         2
 3      1      2 Tuesday        3
 4      1      2 Wednesday      4
 5      1      2 Friday         6
 6      1      3 Sunday         5
 7      1      3 Monday         2
 8      1      3 Tuesday        3
 9      1      3 Wednesday      4
10      1      3 Friday         6
# ℹ 1,362 more rows
…
